{
"1": {
  "1":[[6,49],[8,43],[12,35],[14,6],[16,23],[18,11]],
  "2":[[6,49],[8,42],[12,35],[14,7],[16,24],[18,11]],
  "3":[[6,48],[8,42],[12,36],[14,8],[16,25],[18,12]],
  "4":[[6,48],[8,42],[12,36],[14,9],[16,26],[18,13]],
  "5":[[6,48],[8,42],[12,36],[14,10],[16,27],[18,14]],
  "6":[[6,48],[8,41],[12,37],[14,11],[16,29],[18,15]],
  "7":[[6,48],[8,41],[12,37],[14,12],[16,30],[18,17]],
  "8":[[6,47],[8,40],[12,38],[14,13],[16,31],[18,18]],
  "9":[[6,47],[8,40],[12,38],[14,14],[16,33],[18,19]],
  "10":[[6,47],[8,39],[12,39],[14,15],[16,34],[18,20]],
  "11":[[6,46],[8,38],[12,39],[14,17],[16,35],[18,21]],
  "12":[[6,46],[8,38],[12,39],[14,18],[16,37],[18,23]],
  "13":[[6,45],[8,37],[12,40],[14,19],[16,38],[18,24]],
  "14":[[6,45],[8,36],[12,40],[14,20],[16,40],[18,25]],
  "15":[[6,44],[8,35],[12,40],[14,22],[16,42],[18,27]],
  "16":[[6,43],[8,34],[12,41],[14,23],[16,43],[18,28]],
  "17":[[6,43],[8,33],[12,41],[14,24],[16,45],[18,29]],
  "18":[[6,42],[8,32],[12,41],[14,26],[16,47],[18,31]],
  "19":[[6,41],[8,31],[12,42],[14,27],[16,48],[18,32]],
  "20":[[6,40],[8,30],[12,42],[14,29],[16,50],[18,34]],
  "21":[[6,39],[8,29],[12,42],[14,30],[16,52],[18,35]],
  "22":[[6,38],[8,27],[12,43],[14,31],[16,54],[18,37]],
  "23":[[6,37],[8,26],[12,43],[14,33],[16,55],[18,38]],
  "24":[[6,36],[8,25],[12,43],[14,34],[16,57],[18,40]],
  "25":[[6,35],[8,23],[12,43],[14,36],[16,59],[18,41]],
  "26":[[6,34],[8,22],[12,44],[14,37],[17,1],[18,43]],
  "27":[[6,33],[8,21],[12,44],[14,39],[17,3],[18,44]],
  "28":[[6,32],[8,19],[12,44],[14,40],[17,5],[18,46]],
  "29":[[6,31],[8,18],[12,44],[14,42],[17,7],[18,48]],
  "30":[[6,29],[8,16],[12,44],[14,43],[17,9],[18,49]],
  "31":[[6,28],[8,14],[12,44],[14,45],[17,11],[18,51]]
},
"2": {
  "1":[[6,27],[8,13],[12,45],[14,47],[17,12],[18,53]],
  "2":[[6,25],[8,11],[12,45],[14,48],[17,14],[18,54]],
  "3":[[6,24],[8,9],[12,45],[14,50],[17,16],[18,56]],
  "4":[[6,23],[8,8],[12,45],[14,51],[17,18],[18,58]],
  "5":[[6,21],[8,6],[12,45],[14,53],[17,20],[18,59]],
  "6":[[6,20],[8,4],[12,45],[14,54],[17,22],[19,1]],
  "7":[[6,18],[8,2],[12,45],[14,56],[17,24],[19,3]],
  "8":[[6,17],[8,0],[12,45],[14,57],[17,26],[19,4]],
  "9":[[6,15],[7,59],[12,45],[14,59],[17,28],[19,6]],
  "10":[[6,13],[7,57],[12,46],[15,1],[17,30],[19,8]],
  "11":[[6,12],[7,55],[12,46],[15,2],[17,32],[19,9]],
  "12":[[6,10],[7,53],[12,46],[15,4],[17,34],[19,11]],
  "13":[[6,8],[7,51],[12,46],[15,5],[17,36],[19,13]],
  "14":[[6,7],[7,49],[12,46],[15,7],[17,38],[19,15]],
  "15":[[6,5],[7,47],[12,46],[15,8],[17,40],[19,16]],
  "16":[[6,3],[7,45],[12,46],[15,10],[17,42],[19,18]],
  "17":[[6,1],[7,43],[12,45],[15,11],[17,44],[19,20]],
  "18":[[5,59],[7,41],[12,45],[15,13],[17,46],[19,22]],
  "19":[[5,57],[7,38],[12,45],[15,14],[17,48],[19,23]],
  "20":[[5,56],[7,36],[12,45],[15,16],[17,50],[19,25]],
  "21":[[5,54],[7,34],[12,45],[15,17],[17,52],[19,27]],
  "22":[[5,52],[7,32],[12,45],[15,19],[17,54],[19,29]],
  "23":[[5,50],[7,30],[12,45],[15,20],[17,56],[19,30]],
  "24":[[5,48],[7,28],[12,45],[15,22],[17,58],[19,32]],
  "25":[[5,46],[7,25],[12,45],[15,23],[18,0],[19,34]],
  "26":[[5,44],[7,23],[12,45],[15,25],[18,2],[19,36]],
  "27":[[5,42],[7,21],[12,44],[15,26],[18,4],[19,38]],
  "28":[[5,39],[7,19],[12,44],[15,28],[18,6],[19,39]]
},
"3": {
  "1":[[5,37],[7,16],[12,44],[15,29],[18,8],[19,41]],
  "2":[[5,35],[7,14],[12,44],[15,30],[18,10],[19,43]],
  "3":[[5,33],[7,12],[12,44],[15,32],[18,12],[19,45]],
  "4":[[5,31],[7,10],[12,44],[15,33],[18,14],[19,46]],
  "5":[[5,29],[7,7],[12,43],[15,34],[18,16],[19,48]],
  "6":[[5,26],[7,5],[12,43],[15,36],[18,17],[19,50]],
  "7":[[5,24],[7,3],[12,43],[15,37],[18,19],[19,52]],
  "8":[[5,22],[7,0],[12,43],[15,38],[18,21],[19,54]],
  "9":[[5,20],[6,58],[12,42],[15,40],[18,23],[19,55]],
  "10":[[5,17],[6,55],[12,42],[15,41],[18,25],[19,57]],
  "11":[[5,15],[6,53],[12,42],[15,42],[18,27],[19,59]],
  "12":[[5,13],[6,51],[12,42],[15,44],[18,29],[20,1]],
  "13":[[5,10],[6,48],[12,41],[15,45],[18,31],[20,3]],
  "14":[[5,8],[6,46],[12,41],[15,46],[18,32],[20,4]],
  "15":[[5,6],[6,43],[12,41],[15,47],[18,34],[20,6]],
  "16":[[5,3],[6,41],[12,41],[15,48],[18,36],[20,8]],
  "17":[[5,1],[6,39],[12,40],[15,50],[18,38],[20,10]],
  "18":[[4,58],[6,36],[12,40],[15,51],[18,40],[20,12]],
  "19":[[4,56],[6,34],[12,40],[15,52],[18,42],[20,14]],
  "20":[[4,54],[6,31],[12,39],[15,53],[18,44],[20,15]],
  "21":[[4,51],[6,29],[12,39],[15,54],[18,45],[20,17]],
  "22":[[4,49],[6,26],[12,39],[15,55],[18,47],[20,19]],
  "23":[[4,46],[6,24],[12,38],[15,56],[18,49],[20,21]],
  "24":[[4,44],[6,21],[12,38],[15,58],[18,51],[20,23]],
  "25":[[4,44],[6,19],[12,38],[15,59],[18,53],[20,25]],
  "26":[[4,39],[6,17],[12,38],[16,0],[18,55],[20,26]],
  "27":[[4,36],[6,14],[12,37],[16,1],[18,56],[20,28]],
  "28":[[4,34],[6,12],[12,37],[16,2],[18,58],[20,30]],
  "29":[[4,31],[6,9],[12,37],[16,3],[19,0],[20,32]],
  "30":[[4,28],[6,7],[12,36],[16,4],[19,2],[20,34]],
  "31":[[4,26],[6,4],[12,36],[16,5],[19,4],[20,36]]
},
"4": {
  "1":[[4,23],[6,2],[12,36],[16,6],[19,5],[20,38]],
  "2":[[4,21],[5,59],[12,35],[16,7],[19,7],[20,40]],
  "3":[[4,18],[5,57],[12,35],[16,8],[19,9],[20,42]],
  "4":[[4,16],[5,54],[12,35],[16,9],[19,11],[20,44]],
  "5":[[4,13],[5,52],[12,34],[16,10],[19,13],[20,45]],
  "6":[[4,10],[5,50],[12,34],[16,11],[19,14],[20,47]],
  "7":[[4,8],[5,47],[12,34],[16,12],[19,16],[20,49]],
  "8":[[4,5],[5,45],[12,33],[16,13],[19,18],[20,51]],
  "9":[[4,3],[5,42],[12,33],[16,14],[19,20],[20,53]],
  "10":[[4,0],[5,40],[12,33],[16,14],[19,22],[20,55]],
  "11":[[3,58],[5,38],[12,33],[16,15],[19,24],[20,57]],
  "12":[[3,55],[5,35],[12,32],[16,16],[19,25],[20,59]],
  "13":[[3,52],[5,33],[12,32],[16,17],[19,27],[21,1]],
  "14":[[3,50],[5,31],[12,32],[16,18],[19,29],[21,3]],
  "15":[[3,47],[5,28],[12,32],[16,19],[19,31],[21,5]],
  "16":[[3,45],[5,26],[12,31],[16,20],[19,33],[21,7]],
  "17":[[3,42],[5,24],[12,31],[16,21],[19,34],[21,9]],
  "18":[[3,39],[5,21],[12,31],[16,21],[19,36],[21,12]],
  "19":[[3,37],[5,19],[12,31],[16,22],[19,38],[21,14]],
  "20":[[3,34],[5,17],[12,30],[16,23],[19,40],[21,16]],
  "21":[[3,32],[5,14],[12,30],[16,24],[19,42],[21,18]],
  "22":[[3,29],[5,12],[12,30],[16,25],[19,44],[21,20]],
  "23":[[3,27],[5,10],[12,30],[16,26],[19,45],[21,22]],
  "24":[[3,24],[5,8],[12,29],[16,26],[19,47],[21,24]],
  "25":[[3,22],[5,6],[12,29],[16,27],[19,49],[21,26]],
  "26":[[3,19],[5,3],[12,29],[16,28],[19,51],[21,28]],
  "27":[[3,16],[5,1],[12,29],[16,29],[19,53],[21,30]],
  "28":[[3,14],[4,59],[12,29],[16,30],[19,54],[21,32]],
  "29":[[3,12],[4,57],[12,29],[16,30],[19,56],[21,35]],
  "30":[[3,9],[4,55],[12,28],[16,31],[19,58],[21,37]]
},
"5": {
  "1":[[3,7],[4,53],[12,28],[16,32],[20,0],[21,39]],
  "2":[[3,4],[4,51],[12,28],[16,33],[20,2],[21,41]],
  "3":[[3,2],[4,49],[12,28],[16,33],[20,4],[21,43]],
  "4":[[2,59],[4,47],[12,28],[16,34],[20,5],[21,45]],
  "5":[[2,57],[4,45],[12,28],[16,35],[20,7],[21,47]],
  "6":[[2,55],[4,43],[12,28],[16,36],[20,9],[21,50]],
  "7":[[2,52],[4,41],[12,28],[16,36],[20,11],[21,52]],
  "8":[[2,50],[4,39],[12,28],[16,37],[20,12],[21,54]],
  "9":[[2,48],[4,37],[12,28],[16,38],[20,14],[21,56]],
  "10":[[2,45],[4,35],[12,28],[16,39],[20,16],[21,58]],
  "11":[[2,43],[4,34],[12,28],[16,39],[20,18],[22,0]],
  "12":[[2,41],[4,32],[12,28],[16,40],[20,19],[22,2]],
  "13":[[2,39],[4,30],[12,28],[16,41],[20,21],[22,5]],
  "14":[[2,36],[4,28],[12,28],[16,41],[20,23],[22,7]],
  "15":[[2,34],[4,27],[12,28],[16,42],[20,25],[22,9]],
  "16":[[2,32],[4,25],[12,28],[16,43],[20,26],[22,11]],
  "17":[[2,30],[4,23],[12,28],[16,43],[20,28],[22,13]],
  "18":[[2,28],[4,22],[12,28],[16,44],[20,30],[22,15]],
  "19":[[2,26],[4,20],[12,28],[16,45],[20,31],[22,15]],
  "20":[[2,24],[4,19],[12,28],[16,45],[20,33],[22,15]],
  "21":[[2,22],[4,17],[12,28],[16,46],[20,34],[22,16]],
  "22":[[2,20],[4,16],[12,28],[16,47],[20,36],[22,16]],
  "23":[[2,18],[4,15],[12,28],[16,47],[20,38],[22,16]],
  "24":[[2,17],[4,13],[12,28],[16,48],[20,39],[22,17]],
  "25":[[2,15],[4,12],[12,28],[16,49],[20,41],[22,17]],
  "26":[[2,13],[4,11],[12,28],[16,49],[20,42],[22,17]],
  "27":[[2,11],[4,10],[12,29],[16,50],[20,44],[22,18]],
  "28":[[2,10],[4,8],[12,29],[16,50],[20,45],[22,18]],
  "29":[[2,8],[4,7],[12,29],[16,51],[20,46],[22,18]],
  "30":[[2,7],[4,6],[12,29],[16,51],[20,48],[22,19]],
  "31":[[2,5],[4,5],[12,29],[16,52],[20,49],[22,19]]
},
"6": {
  "1":[[2,4],[4,4],[12,29],[16,52],[20,50],[22,20]],
  "2":[[2,2],[4,3],[12,29],[16,53],[20,51],[22,21]],
  "3":[[2,1],[4,2],[12,30],[16,54],[20,53],[22,23]],
  "4":[[2,0],[4,2],[12,30],[16,54],[20,54],[22,24]],
  "5":[[1,59],[4,1],[12,30],[16,54],[20,55],[22,25]],
  "6":[[1,58],[4,0],[12,30],[16,55],[20,56],[22,26]],
  "7":[[1,57],[4,0],[12,30],[16,55],[20,57],[22,27]],
  "8":[[1,56],[3,59],[12,30],[16,56],[20,58],[22,28]],
  "9":[[1,55],[3,58],[12,31],[16,56],[20,59],[22,29]],
  "10":[[1,54],[3,58],[12,31],[16,57],[21,0],[22,30]],
  "11":[[1,53],[3,57],[12,31],[16,57],[21,1],[22,31]],
  "12":[[1,52],[3,57],[12,31],[16,57],[21,1],[22,31]],
  "13":[[1,52],[3,57],[12,31],[16,58],[21,2],[22,32]],
  "14":[[1,51],[3,56],[12,32],[16,58],[21,3],[22,33]],
  "15":[[1,51],[3,56],[12,32],[16,59],[21,3],[22,33]],
  "16":[[1,51],[3,56],[12,32],[16,59],[21,4],[22,34]],
  "17":[[1,50],[3,56],[12,32],[16,59],[21,4],[22,34]],
  "18":[[1,50],[3,56],[12,32],[16,59],[21,5],[22,35]],
  "19":[[1,50],[3,56],[12,33],[17,0],[21,5],[22,35]],
  "20":[[1,50],[3,56],[12,33],[17,0],[21,6],[22,36]],
  "21":[[1,50],[3,56],[12,33],[17,0],[21,6],[22,36]],
  "22":[[1,50],[3,56],[12,33],[17,0],[21,6],[22,36]],
  "23":[[1,51],[3,57],[12,33],[17,1],[21,6],[22,36]],
  "24":[[1,51],[3,57],[12,34],[17,1],[21,7],[22,37]],
  "25":[[1,51],[3,57],[12,34],[17,1],[21,7],[22,37]],
  "26":[[1,52],[3,58],[12,34],[17,1],[21,7],[22,37]],
  "27":[[1,52],[3,58],[12,34],[17,1],[21,6],[22,36]],
  "28":[[1,53],[3,59],[12,34],[17,1],[21,6],[22,36]],
  "29":[[1,54],[3,59],[12,35],[17,1],[21,6],[22,36]],
  "30":[[1,55],[4,0],[12,35],[17,1],[21,6],[22,36]]
},
"7": {
  "1":[[1,55],[4,0],[12,35],[17,1],[21,6],[22,36]],
  "2":[[1,56],[4,1],[12,35],[17,1],[21,5],[22,35]],
  "3":[[1,57],[4,2],[12,35],[17,1],[21,5],[22,35]],
  "4":[[1,59],[4,3],[12,36],[17,1],[21,4],[22,35]],
  "5":[[2,0],[4,3],[12,36],[17,1],[21,4],[22,34]],
  "6":[[2,1],[4,4],[12,36],[17,1],[21,3],[22,34]],
  "7":[[2,2],[4,5],[12,36],[17,1],[21,3],[22,34]],
  "8":[[2,4],[4,6],[12,36],[17,1],[21,2],[22,33]],
  "9":[[2,5],[4,7],[12,36],[17,1],[21,1],[22,33]],
  "10":[[2,7],[4,8],[12,36],[17,1],[21,0],[22,33]],
  "11":[[2,8],[4,9],[12,37],[17,0],[21,0],[22,32]],
  "12":[[2,10],[4,11],[12,37],[17,0],[20,59],[22,32]],
  "13":[[2,11],[4,12],[12,37],[17,0],[20,58],[22,32]],
  "14":[[2,13],[4,13],[12,37],[17,0],[20,57],[22,31]],
  "15":[[2,15],[4,14],[12,37],[16,59],[20,56],[22,31]],
  "16":[[2,16],[4,16],[12,37],[16,59],[20,55],[22,31]],
  "17":[[2,18],[4,17],[12,37],[16,59],[20,53],[22,31]],
  "18":[[2,20],[4,18],[12,37],[16,58],[20,52],[22,30]],
  "19":[[2,22],[4,20],[12,37],[16,58],[20,51],[22,30]],
  "20":[[2,24],[4,21],[12,37],[16,58],[20,50],[22,30]],
  "21":[[2,26],[4,22],[12,37],[16,57],[20,48],[22,30]],
  "22":[[2,28],[4,24],[12,37],[16,57],[20,47],[22,29]],
  "23":[[2,30],[4,25],[12,38],[16,56],[20,46],[22,29]],
  "24":[[2,32],[4,27],[12,38],[16,56],[20,44],[22,29]],
  "25":[[2,34],[4,28],[12,38],[16,55],[20,43],[22,29]],
  "26":[[2,36],[4,30],[12,38],[16,55],[20,41],[22,27]],
  "27":[[2,38],[4,32],[12,38],[16,54],[20,40],[22,25]],
  "28":[[2,40],[4,33],[12,38],[16,53],[20,38],[22,23]],
  "29":[[2,42],[4,35],[12,38],[16,53],[20,36],[22,21]],
  "30":[[2,44],[4,36],[12,38],[16,52],[20,35],[22,19]],
  "31":[[2,46],[4,38],[12,38],[16,51],[20,33],[22,17]]
},
"8": {
  "1":[[2,48],[4,40],[12,37],[16,51],[20,31],[22,15]],
  "2":[[2,50],[4,41],[12,37],[16,50],[20,30],[22,13]],
  "3":[[2,53],[4,43],[12,37],[16,49],[20,28],[22,10]],
  "4":[[2,55],[4,45],[12,37],[16,48],[20,26],[22,8]],
  "5":[[2,57],[4,46],[12,37],[16,48],[20,24],[22,6]],
  "6":[[2,59],[4,48],[12,37],[16,47],[20,22],[22,4]],
  "7":[[3,1],[4,50],[12,37],[16,46],[20,20],[22,1]],
  "8":[[3,3],[4,52],[12,37],[16,45],[20,18],[21,59]],
  "9":[[3,5],[4,53],[12,37],[16,44],[20,16],[21,57]],
  "10":[[3,8],[4,55],[12,37],[16,43],[20,14],[21,54]],
  "11":[[3,10],[4,57],[12,37],[16,42],[20,12],[21,52]],
  "12":[[3,12],[4,59],[12,36],[16,41],[20,10],[21,50]],
  "13":[[3,14],[5,0],[12,36],[16,40],[20,8],[21,47]],
  "14":[[3,16],[5,2],[12,36],[16,39],[20,6],[21,45]],
  "15":[[3,18],[5,4],[12,36],[16,38],[20,4],[21,43]],
  "16":[[3,20],[5,6],[12,36],[16,37],[20,2],[21,40]],
  "17":[[3,23],[5,7],[12,36],[16,36],[20,0],[21,38]],
  "18":[[3,25],[5,9],[12,35],[16,35],[19,58],[21,35]],
  "19":[[3,27],[5,11],[12,35],[16,34],[19,56],[21,33]],
  "20":[[3,29],[5,13],[12,35],[16,32],[19,53],[21,30]],
  "21":[[3,31],[5,14],[12,35],[16,31],[19,51],[21,28]],
  "22":[[3,33],[5,16],[12,35],[16,30],[19,49],[21,25]],
  "23":[[3,35],[5,18],[12,34],[16,29],[19,47],[21,23]],
  "24":[[3,37],[5,20],[12,34],[16,27],[19,45],[21,20]],
  "25":[[3,39],[5,22],[12,34],[16,26],[19,42],[21,18]],
  "26":[[3,41],[5,23],[12,34],[16,25],[19,40],[21,15]],
  "27":[[3,43],[5,25],[12,33],[16,23],[19,38],[21,13]],
  "28":[[3,45],[5,27],[12,33],[16,22],[19,35],[21,10]],
  "29":[[3,47],[5,29],[12,33],[16,21],[19,33],[21,8]],
  "30":[[3,49],[5,30],[12,33],[16,19],[19,31],[21,5]],
  "31":[[3,51],[5,32],[12,32],[16,18],[19,28],[21,3]]
},
"9": {
  "1":[[3,53],[5,34],[12,32],[16,16],[19,26],[21,0]],
  "2":[[3,55],[5,36],[12,32],[16,15],[19,24],[20,57]],
  "3":[[3,57],[5,37],[12,31],[16,14],[19,21],[20,55]],
  "4":[[3,59],[5,39],[12,31],[16,12],[19,19],[20,52]],
  "5":[[4,1],[5,41],[12,31],[16,11],[19,16],[20,50]],
  "6":[[4,3],[5,43],[12,30],[16,9],[19,14],[20,47]],
  "7":[[4,5],[5,44],[12,30],[16,7],[19,12],[20,45]],
  "8":[[4,7],[5,46],[12,30],[16,6],[19,9],[20,42]],
  "9":[[4,9],[5,48],[12,29],[16,4],[19,7],[20,40]],
  "10":[[4,11],[5,50],[12,29],[16,3],[19,4],[20,37]],
  "11":[[4,13],[5,51],[12,29],[16,1],[19,2],[20,34]],
  "12":[[4,15],[5,53],[12,28],[15,59],[18,59],[20,32]],
  "13":[[4,17],[5,55],[12,28],[15,58],[18,57],[20,29]],
  "14":[[4,18],[5,57],[12,28],[15,56],[18,55],[20,27]],
  "15":[[4,20],[5,58],[12,27],[15,54],[18,52],[20,24]],
  "16":[[4,22],[6,0],[12,27],[15,53],[18,50],[20,22]],
  "17":[[4,24],[6,2],[12,27],[15,51],[18,47],[20,19]],
  "18":[[4,26],[6,4],[12,26],[15,49],[18,45],[20,17]],
  "19":[[4,27],[6,5],[12,26],[15,48],[18,42],[20,14]],
  "20":[[4,29],[6,7],[12,25],[15,46],[18,40],[20,12]],
  "21":[[4,31],[6,9],[12,25],[15,44],[18,37],[20,9]],
  "22":[[4,33],[6,11],[12,25],[15,42],[18,35],[20,7]],
  "23":[[4,35],[6,12],[12,24],[15,41],[18,32],[20,4]],
  "24":[[4,36],[6,14],[12,24],[15,39],[18,30],[20,2]],
  "25":[[4,38],[6,16],[12,24],[15,37],[18,27],[19,59]],
  "26":[[4,40],[6,18],[12,23],[15,35],[18,25],[19,57]],
  "27":[[4,42],[6,19],[12,23],[15,33],[18,22],[19,54]],
  "28":[[4,43],[6,21],[12,22],[15,32],[18,20],[19,52]],
  "29":[[4,45],[6,23],[12,22],[15,30],[18,17],[19,49]],
  "30":[[4,47],[6,24],[12,22],[15,28],[18,15],[19,47]]
},
"10": {
  "1":[[4,48],[6,26],[12,21],[15,26],[18,13],[19,44]],
  "2":[[4,50],[6,28],[12,21],[15,24],[18,10],[19,42]],
  "3":[[4,52],[6,30],[12,21],[15,22],[18,8],[19,40]],
  "4":[[4,54],[6,32],[12,20],[15,21],[18,5],[19,37]],
  "5":[[4,55],[6,33],[12,20],[15,19],[18,3],[19,35]],
  "6":[[4,57],[6,35],[12,20],[15,17],[18,0],[19,33]],
  "7":[[4,59],[6,37],[12,19],[15,15],[17,58],[19,30]],
  "8":[[5,0],[6,39],[12,19],[15,13],[17,55],[19,28]],
  "9":[[5,2],[6,40],[12,19],[15,11],[17,53],[19,26]],
  "10":[[5,4],[6,42],[12,18],[15,10],[17,51],[19,23]],
  "11":[[5,5],[6,44],[12,18],[15,8],[17,48],[19,21]],
  "12":[[5,7],[6,46],[12,18],[15,6],[17,46],[19,19]],
  "13":[[5,9],[6,48],[12,18],[15,4],[17,44],[19,17]],
  "14":[[5,10],[6,49],[12,17],[15,2],[17,41],[19,14]],
  "15":[[5,12],[6,51],[12,17],[15,1],[17,39],[19,12]],
  "16":[[5,14],[6,53],[12,17],[14,59],[17,37],[19,10]],
  "17":[[5,15],[6,55],[12,17],[14,57],[17,34],[19,8]],
  "18":[[5,17],[6,57],[12,16],[14,55],[17,32],[19,6]],
  "19":[[5,19],[6,59],[12,16],[14,53],[17,30],[19,4]],
  "20":[[5,20],[7,1],[12,16],[14,52],[17,27],[19,2]],
  "21":[[5,22],[7,2],[12,16],[14,50],[17,25],[19,0]],
  "22":[[5,24],[7,4],[12,16],[14,48],[17,23],[18,58]],
  "23":[[5,25],[7,6],[12,15],[14,46],[17,21],[18,56]],
  "24":[[5,27],[7,8],[12,15],[14,45],[17,19],[18,54]],
  "25":[[5,29],[7,10],[12,15],[14,43],[17,16],[18,52]],
  "26":[[5,30],[7,12],[12,15],[14,41],[17,14],[18,50]],
  "27":[[5,32],[7,14],[12,15],[14,40],[17,12],[18,48]],
  "28":[[5,34],[7,16],[12,15],[14,38],[17,10],[18,46]],
  "29":[[5,35],[7,18],[12,15],[14,36],[17,8],[18,44]],
  "30":[[5,37],[7,19],[12,15],[14,35],[17,6],[18,43]],
  "31":[[5,39],[7,21],[12,15],[14,33],[17,4],[18,41]]
},
"11": {
  "1":[[5,40],[7,23],[12,15],[14,32],[17,2],[18,39]],
  "2":[[5,42],[7,25],[12,15],[14,30],[17,0],[18,37]],
  "3":[[5,44],[7,27],[12,15],[14,29],[16,58],[18,36]],
  "4":[[5,45],[7,29],[12,15],[14,27],[16,56],[18,34]],
  "5":[[5,47],[7,31],[12,15],[14,26],[16,54],[18,33]],
  "6":[[5,48],[7,33],[12,15],[14,24],[16,53],[18,31]],
  "7":[[5,50],[7,35],[12,15],[14,23],[16,51],[18,29]],
  "8":[[5,52],[7,37],[12,15],[14,22],[16,49],[18,28]],
  "9":[[5,53],[7,39],[12,15],[14,20],[16,47],[18,26]],
  "10":[[5,55],[7,41],[12,15],[14,19],[16,45],[18,25]],
  "11":[[5,57],[7,43],[12,15],[14,18],[16,44],[18,24]],
  "12":[[5,58],[7,44],[12,15],[14,16],[16,42],[18,22]],
  "13":[[6,0],[7,46],[12,15],[14,15],[16,40],[18,21]],
  "14":[[6,1],[7,48],[12,16],[14,14],[16,39],[18,20]],
  "15":[[6,3],[7,50],[12,16],[14,13],[16,37],[18,18]],
  "16":[[6,5],[7,52],[12,16],[14,12],[16,36],[18,17]],
  "17":[[6,6],[7,54],[12,16],[14,11],[16,34],[18,16]],
  "18":[[6,8],[7,56],[12,16],[14,10],[16,33],[18,15]],
  "19":[[6,9],[7,58],[12,17],[14,9],[16,32],[18,14]],
  "20":[[6,11],[7,59],[12,17],[14,8],[16,30],[18,13]],
  "21":[[6,12],[8,1],[12,17],[14,7],[16,29],[18,12]],
  "22":[[6,14],[8,3],[12,17],[14,6],[16,28],[18,11]],
  "23":[[6,15],[8,5],[12,18],[14,5],[16,27],[18,10]],
  "24":[[6,17],[8,7],[12,18],[14,4],[16,25],[18,9]],
  "25":[[6,18],[8,8],[12,18],[14,3],[16,24],[18,8]],
  "26":[[6,20],[8,10],[12,19],[14,3],[16,23],[18,7]],
  "27":[[6,21],[8,12],[12,19],[14,2],[16,22],[18,7]],
  "28":[[6,22],[8,13],[12,19],[14,1],[16,21],[18,6]],
  "29":[[6,24],[8,15],[12,20],[14,1],[16,20],[18,5]],
  "30":[[6,25],[8,17],[12,20],[14,0],[16,19],[18,5]]
},
"12": {
  "1":[[6,26],[8,18],[12,20],[13,59],[16,19],[18,4]],
  "2":[[6,28],[8,20],[12,21],[13,59],[16,18],[18,4]],
  "3":[[6,29],[8,21],[12,21],[13,59],[16,17],[18,3]],
  "4":[[6,30],[8,23],[12,22],[13,58],[16,17],[18,3]],
  "5":[[6,31],[8,24],[12,22],[13,58],[16,16],[18,2]],
  "6":[[6,32],[8,25],[12,22],[13,57],[16,15],[18,2]],
  "7":[[6,34],[8,27],[12,23],[13,57],[16,15],[18,2]],
  "8":[[6,35],[8,28],[12,23],[13,57],[16,15],[18,2]],
  "9":[[6,36],[8,29],[12,24],[13,57],[16,14],[18,1]],
  "10":[[6,37],[8,30],[12,24],[13,57],[16,14],[18,1]],
  "11":[[6,38],[8,32],[12,25],[13,57],[16,14],[18,1]],
  "12":[[6,39],[8,33],[12,25],[13,57],[16,14],[18,1]],
  "13":[[6,40],[8,34],[12,26],[13,57],[16,13],[18,1]],
  "14":[[6,40],[8,35],[12,26],[13,57],[16,13],[18,1]],
  "15":[[6,41],[8,36],[12,27],[13,57],[16,13],[18,1]],
  "16":[[6,42],[8,37],[12,27],[13,57],[16,13],[18,2]],
  "17":[[6,43],[8,37],[12,27],[13,57],[16,14],[18,2]],
  "18":[[6,44],[8,38],[12,28],[13,57],[16,14],[18,2]],
  "19":[[6,44],[8,39],[12,28],[13,58],[16,14],[18,2]],
  "20":[[6,45],[8,40],[12,29],[13,58],[16,14],[18,3]],
  "21":[[6,45],[8,40],[12,29],[13,59],[16,15],[18,3]],
  "22":[[6,46],[8,41],[12,30],[13,59],[16,15],[18,3]],
  "23":[[6,46],[8,41],[12,30],[13,59],[16,16],[18,4]],
  "24":[[6,47],[8,42],[12,31],[14,0],[16,16],[18,4]],
  "25":[[6,47],[8,42],[12,31],[14,1],[16,17],[18,5]],
  "26":[[6,48],[8,42],[12,32],[14,1],[16,17],[18,6]],
  "27":[[6,48],[8,42],[12,32],[14,2],[16,18],[18,6]],
  "28":[[6,48],[8,43],[12,33],[14,3],[16,19],[18,7]],
  "29":[[6,48],[8,43],[12,33],[14,3],[16,20],[18,8]],
  "30":[[6,48],[8,43],[12,34],[14,4],[16,21],[18,9]],
  "31":[[6,48],[8,43],[12,34],[14,5],[16,22],[18,9]]
}
}
